^C:\WORK\IMAGE PROCESSING\COMPUTER VISION\COMPUTER VISION\STDAFX.CPP
C:\WORK\IMAGE PROCESSING\COMPUTER VISION\COMPUTER VISION\DEBUG\COMPUTER VISION.PCH
C:\WORK\IMAGE PROCESSING\COMPUTER VISION\COMPUTER VISION\DEBUG\STDAFX.OBJ
C:\WORK\IMAGE PROCESSING\COMPUTER VISION\COMPUTER VISION\DEBUG\VC110.PDB
^C:\WORK\IMAGE PROCESSING\COMPUTER VISION\COMPUTER VISION\COMPUTER VISION.CPP|C:\WORK\IMAGE PROCESSING\COMPUTER VISION\COMPUTER VISION\CVAUX.CPP|C:\WORK\IMAGE PROCESSING\COMPUTER VISION\COMPUTER VISION\CVCOLOR.CPP|C:\WORK\IMAGE PROCESSING\COMPUTER VISION\COMPUTER VISION\CVCONTOUR.CPP|C:\WORK\IMAGE PROCESSING\COMPUTER VISION\COMPUTER VISION\CVLABEL.CPP|C:\WORK\IMAGE PROCESSING\COMPUTER VISION\COMPUTER VISION\CVSTRAIGHT.CPP|C:\WORK\IMAGE PROCESSING\COMPUTER VISION\COMPUTER VISION\SOURCE.CPP|C:\WORK\IMAGE PROCESSING\COMPUTER VISION\COMPUTER VISION\TSERIAL.CPP
C:\WORK\IMAGE PROCESSING\COMPUTER VISION\COMPUTER VISION\DEBUG\COMPUTER VISION.OBJ
C:\WORK\IMAGE PROCESSING\COMPUTER VISION\COMPUTER VISION\DEBUG\CVAUX.OBJ
C:\WORK\IMAGE PROCESSING\COMPUTER VISION\COMPUTER VISION\DEBUG\CVCOLOR.OBJ
C:\WORK\IMAGE PROCESSING\COMPUTER VISION\COMPUTER VISION\DEBUG\CVCONTOUR.OBJ
C:\WORK\IMAGE PROCESSING\COMPUTER VISION\COMPUTER VISION\DEBUG\CVLABEL.OBJ
C:\WORK\IMAGE PROCESSING\COMPUTER VISION\COMPUTER VISION\DEBUG\CVSTRAIGHT.OBJ
C:\WORK\IMAGE PROCESSING\COMPUTER VISION\COMPUTER VISION\DEBUG\SOURCE.OBJ
C:\WORK\IMAGE PROCESSING\COMPUTER VISION\COMPUTER VISION\DEBUG\TSERIAL.OBJ
^C:\WORK\IMAGE PROCESSING\COMPUTER VISION\COMPUTER VISION\COMPUTER VISION.CPP
C:\WORK\IMAGE PROCESSING\COMPUTER VISION\COMPUTER VISION\DEBUG\VC110.PDB
C:\WORK\IMAGE PROCESSING\COMPUTER VISION\COMPUTER VISION\DEBUG\COMPUTER VISION.OBJ
^C:\WORK\IMAGE PROCESSING\COMPUTER VISION\COMPUTER VISION\CVAUX.CPP
C:\WORK\IMAGE PROCESSING\COMPUTER VISION\COMPUTER VISION\DEBUG\VC110.PDB
^C:\WORK\IMAGE PROCESSING\COMPUTER VISION\COMPUTER VISION\CVCOLOR.CPP
C:\WORK\IMAGE PROCESSING\COMPUTER VISION\COMPUTER VISION\DEBUG\VC110.PDB
^C:\WORK\IMAGE PROCESSING\COMPUTER VISION\COMPUTER VISION\CVCONTOUR.CPP
C:\WORK\IMAGE PROCESSING\COMPUTER VISION\COMPUTER VISION\DEBUG\VC110.PDB
^C:\WORK\IMAGE PROCESSING\COMPUTER VISION\COMPUTER VISION\CVLABEL.CPP
C:\WORK\IMAGE PROCESSING\COMPUTER VISION\COMPUTER VISION\DEBUG\VC110.PDB
^C:\WORK\IMAGE PROCESSING\COMPUTER VISION\COMPUTER VISION\CVSTRAIGHT.CPP
C:\WORK\IMAGE PROCESSING\COMPUTER VISION\COMPUTER VISION\DEBUG\VC110.PDB
^C:\WORK\IMAGE PROCESSING\COMPUTER VISION\COMPUTER VISION\SOURCE.CPP
C:\WORK\IMAGE PROCESSING\COMPUTER VISION\COMPUTER VISION\DEBUG\VC110.PDB
C:\WORK\IMAGE PROCESSING\COMPUTER VISION\COMPUTER VISION\DEBUG\SOURCE.OBJ
^C:\WORK\IMAGE PROCESSING\COMPUTER VISION\COMPUTER VISION\TSERIAL.CPP
C:\WORK\IMAGE PROCESSING\COMPUTER VISION\COMPUTER VISION\DEBUG\VC110.PDB
^C:\WORK\IMAGE PROCESSING\COMPUTER VISION\COMPUTER VISION\COMPUTER VISION.CPP|C:\WORK\IMAGE PROCESSING\COMPUTER VISION\COMPUTER VISION\CVSTRAIGHT.CPP
C:\WORK\IMAGE PROCESSING\COMPUTER VISION\COMPUTER VISION\DEBUG\CVSTRAIGHT.OBJ
