^C:\WORK\IMAGE PROCESSING\COMPUTER VISION\COMPUTER VISION\DEBUG\COMPUTER VISION.OBJ|C:\WORK\IMAGE PROCESSING\COMPUTER VISION\COMPUTER VISION\DEBUG\CVAUX.OBJ|C:\WORK\IMAGE PROCESSING\COMPUTER VISION\COMPUTER VISION\DEBUG\CVCOLOR.OBJ|C:\WORK\IMAGE PROCESSING\COMPUTER VISION\COMPUTER VISION\DEBUG\CVCONTOUR.OBJ|C:\WORK\IMAGE PROCESSING\COMPUTER VISION\COMPUTER VISION\DEBUG\CVLABEL.OBJ|C:\WORK\IMAGE PROCESSING\COMPUTER VISION\COMPUTER VISION\DEBUG\CVSTRAIGHT.OBJ|C:\WORK\IMAGE PROCESSING\COMPUTER VISION\COMPUTER VISION\DEBUG\SOURCE.OBJ|C:\WORK\IMAGE PROCESSING\COMPUTER VISION\COMPUTER VISION\DEBUG\STDAFX.OBJ|C:\WORK\IMAGE PROCESSING\COMPUTER VISION\COMPUTER VISION\DEBUG\TSERIAL.OBJ
C:\WORK\IMAGE PROCESSING\COMPUTER VISION\DEBUG\COMPUTER VISION.ILK
C:\WORK\IMAGE PROCESSING\COMPUTER VISION\DEBUG\COMPUTER VISION.EXE
C:\WORK\IMAGE PROCESSING\COMPUTER VISION\DEBUG\COMPUTER VISION.PDB
