^C:\WORK\IMAGE PROCESSING\COMPUTER VISION\COMPUTER VISION\DEBUG\COMPUTER VISION.OBJ|C:\WORK\IMAGE PROCESSING\COMPUTER VISION\COMPUTER VISION\DEBUG\CVAUX.OBJ|C:\WORK\IMAGE PROCESSING\COMPUTER VISION\COMPUTER VISION\DEBUG\CVCOLOR.OBJ|C:\WORK\IMAGE PROCESSING\COMPUTER VISION\COMPUTER VISION\DEBUG\CVCONTOUR.OBJ|C:\WORK\IMAGE PROCESSING\COMPUTER VISION\COMPUTER VISION\DEBUG\CVLABEL.OBJ|C:\WORK\IMAGE PROCESSING\COMPUTER VISION\COMPUTER VISION\DEBUG\CVSTRAIGHT.OBJ|C:\WORK\IMAGE PROCESSING\COMPUTER VISION\COMPUTER VISION\DEBUG\SOURCE.OBJ|C:\WORK\IMAGE PROCESSING\COMPUTER VISION\COMPUTER VISION\DEBUG\STDAFX.OBJ|C:\WORK\IMAGE PROCESSING\COMPUTER VISION\COMPUTER VISION\DEBUG\TSERIAL.OBJ
C:\OPENCV\BUILD\X86\VC11\LIB\OPENCV_CALIB3D246.LIB
C:\OPENCV\BUILD\X86\VC11\LIB\OPENCV_CONTRIB246.LIB
C:\OPENCV\BUILD\X86\VC11\LIB\OPENCV_CORE246.LIB
C:\OPENCV\BUILD\X86\VC11\LIB\OPENCV_FEATURES2D246.LIB
C:\OPENCV\BUILD\X86\VC11\LIB\OPENCV_FLANN246.LIB
C:\OPENCV\BUILD\X86\VC11\LIB\OPENCV_GPU246.LIB
C:\OPENCV\BUILD\X86\VC11\LIB\OPENCV_HAARTRAINING_ENGINE.LIB
C:\OPENCV\BUILD\X86\VC11\LIB\OPENCV_NONFREE246.LIB
C:\OPENCV\BUILD\X86\VC11\LIB\OPENCV_HIGHGUI246.LIB
C:\OPENCV\BUILD\X86\VC11\LIB\OPENCV_IMGPROC246.LIB
C:\OPENCV\BUILD\X86\VC11\LIB\OPENCV_LEGACY246.LIB
C:\OPENCV\BUILD\X86\VC11\LIB\OPENCV_ML246.LIB
C:\OPENCV\BUILD\X86\VC11\LIB\OPENCV_OBJDETECT246.LIB
C:\OPENCV\BUILD\X86\VC11\LIB\OPENCV_TS246.LIB
C:\OPENCV\BUILD\X86\VC11\LIB\OPENCV_VIDEO246.LIB
C:\PROGRAM FILES (X86)\WINDOWS KITS\8.0\LIB\WIN8\UM\X86\KERNEL32.LIB
C:\PROGRAM FILES (X86)\WINDOWS KITS\8.0\LIB\WIN8\UM\X86\USER32.LIB
C:\PROGRAM FILES (X86)\WINDOWS KITS\8.0\LIB\WIN8\UM\X86\GDI32.LIB
C:\PROGRAM FILES (X86)\WINDOWS KITS\8.0\LIB\WIN8\UM\X86\WINSPOOL.LIB
C:\PROGRAM FILES (X86)\WINDOWS KITS\8.0\LIB\WIN8\UM\X86\COMDLG32.LIB
C:\PROGRAM FILES (X86)\WINDOWS KITS\8.0\LIB\WIN8\UM\X86\ADVAPI32.LIB
C:\PROGRAM FILES (X86)\WINDOWS KITS\8.0\LIB\WIN8\UM\X86\SHELL32.LIB
C:\PROGRAM FILES (X86)\WINDOWS KITS\8.0\LIB\WIN8\UM\X86\OLE32.LIB
C:\PROGRAM FILES (X86)\WINDOWS KITS\8.0\LIB\WIN8\UM\X86\OLEAUT32.LIB
C:\PROGRAM FILES (X86)\WINDOWS KITS\8.0\LIB\WIN8\UM\X86\UUID.LIB
C:\PROGRAM FILES (X86)\WINDOWS KITS\8.0\LIB\WIN8\UM\X86\ODBC32.LIB
C:\PROGRAM FILES (X86)\WINDOWS KITS\8.0\LIB\WIN8\UM\X86\ODBCCP32.LIB
C:\WORK\IMAGE PROCESSING\COMPUTER VISION\COMPUTER VISION\DEBUG\COMPUTER VISION.OBJ
C:\WORK\IMAGE PROCESSING\COMPUTER VISION\COMPUTER VISION\DEBUG\CVAUX.OBJ
C:\WORK\IMAGE PROCESSING\COMPUTER VISION\COMPUTER VISION\DEBUG\CVCOLOR.OBJ
C:\WORK\IMAGE PROCESSING\COMPUTER VISION\COMPUTER VISION\DEBUG\CVCONTOUR.OBJ
C:\WORK\IMAGE PROCESSING\COMPUTER VISION\COMPUTER VISION\DEBUG\CVLABEL.OBJ
C:\WORK\IMAGE PROCESSING\COMPUTER VISION\COMPUTER VISION\DEBUG\CVSTRAIGHT.OBJ
C:\WORK\IMAGE PROCESSING\COMPUTER VISION\COMPUTER VISION\DEBUG\SOURCE.OBJ
C:\WORK\IMAGE PROCESSING\COMPUTER VISION\COMPUTER VISION\DEBUG\STDAFX.OBJ
C:\WORK\IMAGE PROCESSING\COMPUTER VISION\COMPUTER VISION\DEBUG\TSERIAL.OBJ
C:\WINDOWS\SYSTEM32\TZRES.DLL
C:\WINDOWS\GLOBALIZATION\SORTING\SORTDEFAULT.NLS
C:\PROGRAM FILES (X86)\MICROSOFT VISUAL STUDIO 11.0\VC\LIB\MSVCPRTD.LIB
C:\PROGRAM FILES (X86)\MICROSOFT VISUAL STUDIO 11.0\VC\LIB\MSVCRTD.LIB
C:\PROGRAM FILES (X86)\MICROSOFT VISUAL STUDIO 11.0\VC\LIB\OLDNAMES.LIB
C:\PROGRAM FILES (X86)\MICROSOFT VISUAL STUDIO 11.0\VC\BIN\LINK.EXE
C:\PROGRAM FILES (X86)\WINDOWS KITS\8.0\BIN\X86\RC.EXE
C:\PROGRAM FILES (X86)\MICROSOFT VISUAL STUDIO 11.0\VC\BIN\CVTRES.EXE
